{
    "builds": [
    {
    "src": "projet_web_app/wsgi.py",
    "use": "@vercel/python",
    "config": { "maxLambdaSize":"15mb", "runtime" : "python3.9"}
    }
    ],
    "routes": [
    {
    "src": "/(.*)",
    "dest": "projet_web_app/wsgi.py"
    }
    ]
}